…
First few rows of the dataset:


```r
as_tibble(tidySummary)
```

```
## # A tibble: 11,880 x 11
##    subject activity domain    dimension component instrument    jerk  magnitude statistic count mean_value
##    <fct>   <fct>    <fct>     <fct>     <fct>     <fct>         <fct> <fct>     <fct>     <int>      <dbl>
##  1 1       laying   frequency X         <NA>      gyroscope     <NA>  <NA>      mean         50     -0.850
##  2 1       laying   frequency X         <NA>      gyroscope     <NA>  <NA>      std          50     -0.882
##  3 1       laying   frequency X         body      accelerometer <NA>  <NA>      mean         50     -0.939
##  4 1       laying   frequency X         body      accelerometer <NA>  <NA>      std          50     -0.924
##  5 1       laying   frequency X         body      accelerometer jerk  <NA>      mean         50     -0.957
##  6 1       laying   frequency X         body      accelerometer jerk  <NA>      std          50     -0.964
##  7 1       laying   frequency Y         <NA>      gyroscope     <NA>  <NA>      mean         50     -0.952
##  8 1       laying   frequency Y         <NA>      gyroscope     <NA>  <NA>      std          50     -0.951
##  9 1       laying   frequency Y         body      accelerometer <NA>  <NA>      mean         50     -0.867
## 10 1       laying   frequency Y         body      accelerometer <NA>  <NA>      std          50     -0.834
## # … with 11,870 more rows
```
